<?xml version="1.0" standalone="no"?>
<!DOCTYPE svg PUBLIC "-//W3C//DTD SVG 20010904//EN"
 "http://www.w3.org/TR/2001/REC-SVG-20010904/DTD/svg10.dtd">
<svg version="1.0" xmlns="http://www.w3.org/2000/svg"
 width="577.000000pt" height="577.000000pt" viewBox="0 0 577.000000 577.000000"
 preserveAspectRatio="xMidYMid meet">
<metadata>
Created by potrace 1.11, written by Peter Selinger 2001-2013
</metadata>
<g transform="translate(0.000000,577.000000) scale(0.100000,-0.100000)"
fill="#000000" stroke="none">
<path d="M2719 5666 c-2 -3 -38 -6 -79 -7 -190 -5 -562 -84 -825 -174 -231
-80 -513 -203 -620 -272 -102 -66 -355 -282 -355 -304 0 -4 33 12 74 36 161
95 393 213 611 310 221 98 562 208 745 240 52 9 97 18 100 20 3 1 59 11 125
21 94 15 177 19 380 19 321 0 473 -17 730 -81 77 -19 147 -37 155 -39 21 -4
249 -80 280 -93 14 -5 43 -17 65 -26 205 -80 481 -214 713 -344 78 -44 142
-77 142 -72 0 16 -243 230 -328 289 -43 30 -218 116 -344 170 -282 120 -503
190 -788 250 -107 22 -156 30 -340 51 -83 10 -433 14 -441 6z"/>
<path d="M2625 5429 c-143 -12 -460 -66 -520 -89 -11 -4 -58 -18 -105 -30
-290 -78 -775 -286 -1041 -446 -31 -19 -59 -34 -62 -34 -19 0 -269 -161 -294
-190 -40 -46 -134 -182 -129 -187 2 -3 28 11 58 30 495 318 952 546 1378 687
141 47 403 108 558 131 168 25 536 36 667 21 184 -22 331 -43 360 -52 25 -7
81 -21 185 -45 53 -12 86 -21 175 -51 244 -81 377 -136 628 -258 105 -52 203
-101 217 -109 14 -8 68 -39 120 -68 104 -57 180 -102 373 -221 70 -43 127 -74
127 -70 0 14 -116 175 -147 203 -56 53 -488 293 -718 401 -185 86 -233 106
-362 153 -70 26 -137 51 -148 55 -90 37 -418 119 -562 140 -43 7 -89 14 -103
16 -146 23 -463 30 -655 13z"/>
<path d="M2660 5203 c-41 -4 -359 -48 -405 -57 -155 -31 -482 -132 -652 -202
-352 -145 -805 -386 -1153 -612 -81 -53 -99 -71 -132 -135 -41 -83 -51 -110
-35 -101 13 8 73 46 192 121 130 83 326 203 331 203 3 0 49 27 103 59 365 221
867 436 1216 521 183 45 203 49 310 65 188 29 210 30 465 30 211 -1 281 -5
405 -23 83 -13 164 -27 180 -31 17 -5 48 -12 70 -16 40 -6 56 -10 240 -64 404
-119 883 -350 1397 -674 188 -118 285 -179 306 -194 33 -23 28 -3 -19 89 -45
85 -36 78 -239 205 -377 236 -781 446 -1093 569 -163 64 -401 138 -547 171
-36 8 -74 17 -85 19 -207 49 -620 76 -855 57z"/>
<path d="M2640 4970 c-166 -14 -410 -58 -600 -108 -86 -22 -280 -86 -327 -108
-17 -7 -35 -14 -40 -14 -9 0 -97 -36 -248 -102 -134 -59 -473 -234 -605 -312
-36 -22 -74 -44 -85 -50 -28 -16 -250 -152 -310 -191 -27 -18 -89 -57 -136
-88 l-86 -55 -28 -76 c-15 -42 -26 -78 -23 -81 2 -2 20 6 39 19 47 33 227 149
266 172 18 10 76 46 130 80 595 371 1115 612 1541 714 199 48 188 45 317 66
158 24 235 29 465 29 197 -1 254 -5 495 -40 142 -20 385 -88 645 -180 220 -78
650 -290 923 -455 23 -14 57 -34 75 -45 80 -47 339 -208 376 -234 145 -98 216
-140 216 -126 0 23 -41 128 -57 147 -16 18 -339 225 -508 325 -349 207 -680
373 -956 479 -109 41 -326 113 -363 120 -14 2 -38 9 -52 15 -46 17 -252 57
-404 79 -167 24 -496 34 -660 20z"/>
<path d="M2643 4740 c-318 -29 -664 -112 -993 -239 -58 -23 -111 -41 -117 -41
-7 0 -13 -4 -13 -10 0 -5 -5 -10 -11 -10 -12 0 -360 -160 -369 -170 -3 -3 -27
-16 -55 -30 -142 -72 -479 -270 -695 -408 -52 -34 -137 -87 -188 -119 -99 -62
-98 -60 -128 -188 l-7 -29 27 18 c15 9 29 16 31 14 2 -2 -5 -39 -15 -83 -72
-313 -74 -798 -4 -1120 25 -117 26 -107 -8 -89 l-30 16 7 -34 c25 -113 19
-106 175 -210 80 -53 149 -97 153 -97 4 -1 34 -18 65 -40 273 -184 747 -439
1072 -576 223 -94 613 -214 775 -239 17 -3 71 -11 120 -20 153 -25 398 -39
565 -32 174 8 448 45 600 81 36 8 74 17 85 20 11 2 65 18 120 35 55 17 107 33
116 35 37 8 301 110 384 147 297 135 653 324 851 453 33 21 100 62 171 105 94
57 335 214 348 227 14 14 28 55 41 123 l7 34 -36 -23 -36 -22 5 23 c82 372 90
795 20 1159 -13 68 -22 126 -21 128 2 2 18 -7 34 -19 36 -25 37 -21 15 65 -19
73 5 54 -274 230 -85 54 -174 110 -198 126 -23 16 -45 29 -47 29 -3 0 -40 22
-83 48 -217 136 -626 351 -812 426 -36 15 -74 31 -85 36 -11 6 -51 21 -90 35
-38 14 -79 30 -90 35 -11 5 -38 14 -60 20 -22 6 -49 15 -60 20 -16 7 -169 52
-225 66 -267 67 -455 92 -720 98 -118 3 -261 1 -317 -4z m-423 -187 c-249
-113 -411 -218 -565 -365 -263 -251 -433 -541 -519 -883 -61 -241 -65 -542
-12 -810 23 -115 75 -265 141 -402 181 -379 512 -700 889 -865 39 -17 73 -32
75 -34 18 -16 -195 38 -330 83 -63 22 -107 45 -164 88 -108 81 -268 241 -354
353 -114 150 -238 374 -272 493 -7 24 -16 49 -20 54 -11 16 -55 180 -76 285
-28 148 -26 524 5 675 12 61 26 121 31 135 5 14 19 59 31 100 59 196 183 426
328 605 128 159 342 350 435 388 20 9 72 25 114 37 43 12 87 25 98 30 22 9
123 35 142 35 6 0 15 4 19 8 4 4 14 7 23 6 9 0 0 -7 -19 -16z m870 7 c47 -5
94 -12 105 -15 11 -2 47 -11 80 -19 132 -31 213 -60 342 -121 330 -158 586
-400 766 -727 89 -161 163 -388 187 -571 14 -114 14 -348 0 -462 -37 -299
-174 -608 -380 -857 -202 -243 -536 -462 -830 -544 -164 -45 -277 -59 -480
-58 -245 0 -387 26 -595 106 -348 134 -644 379 -841 698 -84 136 -147 281
-194 450 -71 259 -71 610 1 863 11 40 24 86 28 102 26 94 109 268 188 393 48
75 182 238 245 298 275 261 632 428 998 467 76 8 299 6 380 -3z m650 -45 c205
-58 228 -68 348 -165 293 -236 519 -573 623 -930 11 -36 23 -78 29 -95 10 -33
27 -129 38 -220 12 -98 7 -433 -7 -515 -36 -208 -89 -378 -172 -547 -137 -278
-338 -519 -592 -707 -52 -38 -235 -100 -426 -143 -37 -9 -16 14 26 28 73 24
257 130 360 208 162 122 330 300 436 461 106 162 204 396 252 605 29 124 48
324 41 432 -34 514 -211 914 -552 1243 -154 148 -298 249 -468 328 -158 74
-155 72 -121 66 17 -4 100 -26 185 -49z m-2328 -277 c-154 -160 -320 -428
-403 -651 -97 -258 -129 -453 -124 -747 2 -180 8 -249 30 -350 3 -14 10 -43
14 -65 46 -215 150 -455 287 -661 65 -99 193 -256 237 -293 44 -35 7 -26 -92
24 -81 40 -117 64 -138 92 -15 21 -36 47 -45 57 -33 37 -149 235 -198 339 -59
124 -128 326 -149 437 -5 25 -12 56 -15 70 -42 180 -39 625 4 790 5 19 21 82
35 140 15 58 36 132 47 165 29 82 140 315 177 371 17 25 31 48 31 52 1 4 33
49 73 101 71 93 74 96 177 147 58 29 107 51 109 49 2 -2 -24 -32 -57 -67z
m2978 32 c115 -55 135 -68 173 -115 251 -313 412 -752 432 -1175 11 -221 -5
-371 -69 -653 -47 -207 -199 -518 -344 -707 -61 -79 -63 -80 -183 -135 -87
-40 -101 -43 -73 -16 234 223 446 612 522 956 42 187 47 238 47 455 -1 274
-22 406 -107 655 -86 252 -257 534 -435 718 -59 60 -56 62 37 17z m-3389 -234
c-47 -68 -138 -254 -187 -383 -51 -135 -96 -308 -121 -468 -28 -182 -22 -513
13 -700 28 -147 81 -330 131 -450 48 -115 139 -289 174 -334 11 -13 17 -26 15
-29 -3 -2 -40 16 -83 40 l-78 45 -50 99 c-28 54 -63 133 -79 174 -15 41 -35
91 -42 110 -24 59 -73 260 -89 360 -77 486 -3 975 211 1401 43 87 45 89 121
134 43 25 81 45 86 45 4 0 -6 -20 -22 -44z m3847 -5 c68 -40 74 -46 111 -119
60 -121 134 -308 152 -387 6 -27 15 -59 19 -70 35 -80 71 -375 72 -580 0 -193
-37 -492 -73 -585 -5 -14 -12 -38 -15 -54 -13 -72 -90 -267 -160 -408 -32 -63
-40 -71 -111 -113 -43 -25 -81 -45 -85 -45 -5 0 3 17 17 37 41 62 169 323 197
403 34 95 75 239 89 310 6 30 12 64 14 75 29 148 38 502 16 655 -22 163 -68
348 -122 491 -21 59 -39 111 -39 117 0 6 -3 12 -7 14 -5 2 -21 32 -38 68 -16
36 -51 102 -77 147 -47 81 -55 98 -40 90 4 -2 40 -23 80 -46z m-4191 -212
c-140 -317 -206 -708 -185 -1088 7 -125 9 -147 29 -271 21 -134 96 -395 143
-495 29 -63 41 -99 30 -93 -5 3 -37 21 -70 41 -59 35 -62 40 -87 109 -55 158
-87 280 -118 458 -19 106 -22 163 -23 380 -1 275 9 375 60 594 24 104 87 310
102 333 9 13 134 94 139 90 2 -2 -7 -28 -20 -58z m4521 16 c34 -21 62 -38 62
-39 0 -1 18 -55 41 -121 42 -126 65 -220 101 -420 19 -103 22 -157 22 -380 0
-225 -3 -277 -22 -388 -34 -196 -98 -429 -139 -510 -13 -25 -131 -113 -140
-104 -3 4 10 39 42 112 20 45 71 202 89 270 99 387 105 792 16 1170 -12 50
-23 97 -25 105 -7 31 -73 217 -99 277 -14 34 -26 65 -26 68 0 7 -1 8 78 -40z
m-4802 -186 c-8 -24 -24 -82 -36 -129 -74 -299 -96 -586 -69 -882 16 -173 76
-473 115 -572 8 -21 11 -23 -68 30 -44 29 -54 41 -65 81 -51 189 -93 501 -93
694 0 183 40 501 79 636 5 17 7 33 5 36 -7 7 34 97 44 97 5 0 29 13 53 29 24
17 45 28 47 27 1 -2 -4 -23 -12 -47z m5096 1 c38 -20 44 -32 71 -145 83 -334
94 -745 32 -1095 -30 -168 -53 -273 -63 -281 -14 -13 -122 -80 -122 -75 0 2
11 41 24 87 32 109 51 192 71 309 28 158 30 196 29 440 0 194 -4 259 -22 370
-24 144 -61 307 -86 379 -21 58 -20 66 7 47 12 -9 38 -25 59 -36z"/>
<path d="M2790 4472 c-171 -8 -423 -75 -602 -160 -147 -70 -388 -248 -463
-342 -11 -14 -31 -36 -45 -50 -48 -49 -158 -210 -204 -299 -69 -134 -126 -290
-152 -416 -31 -152 -39 -450 -15 -585 13 -78 56 -240 71 -275 5 -11 23 -54 40
-95 17 -41 39 -89 48 -106 9 -17 27 -50 39 -72 13 -22 44 -70 70 -107 27 -36
58 -80 71 -98 34 -47 208 -216 277 -268 180 -135 427 -246 645 -290 109 -21
148 -24 340 -24 149 0 215 5 280 18 263 56 519 177 715 337 129 106 279 278
341 390 10 19 22 37 25 40 4 3 24 41 46 85 221 442 227 958 18 1402 -129 274
-329 498 -605 678 -42 27 -193 105 -204 105 -3 0 -29 11 -58 24 -155 71 -457
119 -678 108z m270 -118 c97 -11 161 -24 232 -45 40 -13 76 -23 80 -23 3 -1
10 -4 14 -8 4 -5 15 -8 24 -8 9 0 71 -27 138 -61 361 -179 638 -500 759 -879
55 -173 67 -253 67 -450 0 -102 -3 -198 -6 -215 -4 -16 -14 -61 -22 -100 -71
-346 -282 -673 -571 -884 -112 -82 -111 -81 -215 -134 -128 -66 -274 -114
-433 -142 -89 -16 -335 -22 -412 -10 -162 25 -274 54 -390 102 -495 204 -851
671 -914 1198 -21 175 -11 355 30 525 22 93 57 198 72 218 5 6 7 12 3 12 -15
0 105 215 168 300 139 188 334 353 532 453 160 81 311 127 475 146 52 6 108
13 124 15 32 4 171 -1 245 -10z"/>
<path d="M2698 4254 c-54 -7 -112 -17 -130 -23 -18 -6 -71 -22 -118 -37 -442
-139 -780 -504 -914 -984 -44 -159 -47 -466 -7 -635 108 -449 402 -803 816
-979 125 -54 238 -83 395 -102 417 -51 843 101 1143 409 193 199 314 425 374
702 24 115 25 418 0 535 -86 414 -317 733 -688 951 -69 40 -217 103 -279 119
-130 33 -167 40 -269 50 -131 12 -186 12 -323 -6z m419 -114 c89 -15 258 -73
353 -120 116 -58 241 -154 345 -261 127 -133 205 -252 268 -410 102 -254 115
-577 35 -844 -11 -38 -25 -76 -31 -82 -5 -7 -7 -13 -4 -13 10 0 -69 -156 -112
-222 -69 -105 -89 -130 -162 -205 -123 -127 -293 -240 -463 -308 -71 -28 -220
-64 -306 -74 -92 -10 -285 -6 -365 8 -394 68 -752 333 -929 687 -26 53 -49
101 -50 107 -2 7 -8 26 -15 42 -15 37 -49 157 -57 205 -3 19 -8 109 -11 200
-5 192 12 305 74 470 167 451 586 779 1058 830 96 10 277 5 372 -10z"/>
<path d="M2730 4054 c-236 -45 -403 -117 -575 -246 -66 -50 -196 -192 -249
-271 -98 -148 -154 -292 -187 -482 -52 -294 31 -635 214 -881 168 -225 451
-410 706 -459 222 -43 470 -27 641 41 3 1 15 5 28 9 79 26 263 132 337 195 58
49 166 162 193 202 121 181 154 249 197 413 76 286 42 592 -96 853 -131 249
-375 464 -632 559 -134 49 -220 64 -387 68 -91 2 -176 1 -190 -1z m362 -118
c53 -9 214 -64 273 -93 162 -82 326 -230 425 -383 75 -115 106 -183 140 -306
35 -125 43 -374 16 -505 -22 -102 -101 -288 -152 -356 -13 -17 -24 -36 -24
-42 0 -17 -237 -251 -254 -251 -8 0 -16 -3 -18 -8 -3 -7 -74 -52 -133 -84 -49
-26 -172 -69 -240 -83 -102 -22 -154 -26 -270 -22 -148 6 -186 11 -247 33 -23
9 -54 18 -68 20 -36 7 -174 76 -248 125 -89 58 -220 186 -279 271 -88 128
-160 292 -178 408 -4 25 -9 54 -11 65 -13 67 -15 183 -5 265 50 419 322 759
721 904 115 41 216 55 375 51 77 -2 157 -6 177 -9z"/>
<path d="M2775 3850 c-302 -45 -568 -213 -713 -452 -53 -88 -91 -172 -112
-248 -131 -470 88 -955 521 -1159 494 -232 1070 -24 1304 472 67 141 89 237
89 392 1 145 -5 200 -33 295 -58 202 -199 400 -373 523 -117 83 -240 134 -423
173 -45 10 -204 12 -260 4z"/>
<path d="M150 1961 c0 -33 56 -154 79 -170 39 -28 288 -183 446 -279 595 -360
1121 -583 1600 -677 258 -50 339 -58 595 -59 263 0 332 4 510 35 63 11 124 22
135 24 11 1 49 10 85 19 36 9 74 19 84 21 11 3 60 16 110 31 396 113 833 316
1338 622 62 38 124 75 138 83 14 8 27 16 30 19 3 3 65 44 138 90 73 46 138 91
146 99 14 16 56 123 56 142 0 17 -24 5 -144 -75 -108 -71 -270 -173 -371 -234
-28 -16 -81 -48 -119 -72 -71 -43 -90 -54 -191 -110 -33 -18 -64 -36 -70 -40
-24 -18 -320 -166 -430 -214 -211 -94 -479 -192 -616 -226 -572 -144 -1105
-144 -1614 1 -38 11 -79 22 -90 24 -30 7 -257 86 -278 97 -10 5 -26 11 -35 13
-81 18 -480 211 -732 353 -198 112 -529 315 -705 432 -93 61 -95 63 -95 51z"/>
<path d="M5345 1559 c-459 -291 -789 -472 -1130 -619 -230 -100 -548 -198
-765 -236 -368 -64 -670 -70 -1017 -19 -54 8 -118 19 -143 25 -197 45 -367 92
-400 109 -9 5 -30 12 -48 16 -18 4 -77 25 -130 47 -53 21 -108 43 -122 47 -14
5 -90 39 -170 75 -294 136 -578 296 -1010 569 -74 47 -136 84 -138 82 -2 -2
16 -41 40 -87 46 -88 62 -103 195 -185 135 -84 284 -173 289 -173 3 0 18 -8
32 -19 36 -25 242 -136 388 -210 159 -79 435 -201 457 -201 5 0 23 -6 40 -14
53 -24 126 -49 130 -45 2 2 10 -1 18 -7 8 -6 32 -15 54 -19 22 -4 45 -10 50
-14 26 -20 312 -83 503 -111 319 -46 744 -33 1049 34 81 18 281 68 298 76 11
4 54 18 95 31 92 28 268 95 409 156 168 73 496 239 564 285 15 11 27 16 27 11
0 -4 4 -3 8 2 4 6 59 41 122 78 63 37 178 106 255 154 l139 88 44 83 c24 45
42 86 40 90 -2 5 -79 -40 -173 -99z"/>
<path d="M5275 1283 c-45 -30 -397 -243 -402 -243 -2 0 -50 -27 -107 -59 -206
-120 -565 -288 -726 -341 -30 -10 -78 -27 -106 -38 -120 -45 -426 -124 -554
-142 -41 -6 -118 -17 -170 -25 -144 -21 -587 -13 -745 14 -66 11 -131 22 -145
25 -14 3 -50 11 -80 17 -116 23 -353 94 -511 152 -316 118 -724 327 -1118 573
-74 47 -136 83 -137 81 -5 -5 94 -147 131 -189 40 -45 175 -128 420 -258 55
-29 123 -65 150 -80 140 -74 521 -240 586 -255 8 -2 32 -10 53 -19 21 -9 64
-23 95 -32 31 -8 88 -24 126 -35 133 -38 177 -48 335 -73 58 -10 130 -22 160
-27 90 -16 463 -22 600 -10 488 44 909 171 1450 439 85 42 157 79 160 82 3 3
23 15 45 26 33 18 110 61 210 118 107 61 170 104 199 137 43 47 131 177 124
184 -2 2 -22 -7 -43 -22z"/>
<path d="M4895 820 c-184 -112 -548 -291 -780 -382 -121 -48 -325 -117 -347
-118 -4 -1 -27 -8 -50 -16 -52 -19 -193 -51 -308 -70 -238 -39 -284 -42 -555
-39 -148 1 -281 5 -295 8 -14 3 -72 13 -130 21 -299 44 -657 156 -1000 313
-149 69 -440 220 -540 281 -47 29 -59 28 -29 -4 47 -51 245 -217 314 -263 97
-66 376 -194 548 -253 34 -11 67 -24 72 -29 6 -4 22 -10 36 -12 14 -3 48 -13
75 -22 42 -15 123 -38 174 -50 316 -76 535 -105 805 -105 231 1 402 17 585 55
36 7 101 21 145 30 44 9 91 20 105 25 14 5 59 18 100 30 115 33 357 120 445
160 11 5 84 38 162 74 78 35 168 82 200 104 100 69 344 285 332 296 -2 2 -31
-13 -64 -34z"/>
</g>
</svg>
